<?xml version="1.0" encoding="UTF-8"?>
<kml xmlns="http://www.opengis.net/kml/2.2">
  <Document>
    <name>Odda, Norway (surrounding area)</name>
    <description></description>
    <Folder>
      <Placemark>
        <name>Havni</name>
        <description>Google Places types: spa, point_of_interest, establishment</description>
        <Point>
          <coordinates>6.65688500,60.32385500,0</coordinates>
        </Point>
      </Placemark>
      <Placemark>
        <name>Hereiane Fotopunkt</name>
        <description>Google Places types: zoo, park, point_of_interest, establishment</description>
        <Point>
          <coordinates>6.33783300,60.32935300,0</coordinates>
        </Point>
      </Placemark>
      <Placemark>
        <name>Toppen av Saudasvingen</name>
        <description>Google Places types: gym, health, point_of_interest, establishment</description>
        <Point>
          <coordinates>6.74555700,59.80883400,0</coordinates>
        </Point>
      </Placemark>
      <Placemark>
        <name>Agatunet</name>
        <description></description>
        <Point>
          <coordinates>6.60247900,60.29953400,0</coordinates>
        </Point>
      </Placemark>
      <Placemark>
        <name>Folgefonna National Park</name>
        <description></description>
        <Point>
          <coordinates>6.29791500,60.01486000,0</coordinates>
        </Point>
      </Placemark>
      <Placemark>
        <name>Kvinnherad Museum</name>
        <description>Google Places types: museum, point_of_interest, establishment</description>
        <Point>
          <coordinates>6.09682600,59.98949400,0</coordinates>
        </Point>
      </Placemark>
      <Placemark>
        <name>Røldal Rural Museum</name>
        <description></description>
        <Point>
          <coordinates>6.97512000,59.88783100,0</coordinates>
        </Point>
      </Placemark>
      <Placemark>
        <name>Hildal naturreservat</name>
        <description>Google Places types: park, point_of_interest, establishment</description>
        <Point>
          <coordinates>6.57369800,59.99631200,0</coordinates>
        </Point>
      </Placemark>
      <Placemark>
        <name>Malmanger Parsonage – Rosendal</name>
        <description>Google Places types: museum, point_of_interest, establishment</description>
        <Point>
          <coordinates>6.01696700,59.98346800,0</coordinates>
        </Point>
      </Placemark>
      <Placemark>
        <name>Herand Kulturhistoriske Senter</name>
        <description></description>
        <Point>
          <coordinates>6.38090600,60.34298900,0</coordinates>
        </Point>
      </Placemark>
      <Placemark>
        <name>Vangssago Sawmill</name>
        <description>Google Places types: museum, point_of_interest, establishment</description>
        <Point>
          <coordinates>6.01724600,59.98796500,0</coordinates>
        </Point>
      </Placemark>
      <Placemark>
        <name>Skipsbyggjarmuseet Skaalurensamlinga</name>
        <description>Google Places types: museum, point_of_interest, establishment</description>
        <Point>
          <coordinates>6.00704600,59.98688500,0</coordinates>
        </Point>
      </Placemark>
      <Placemark>
        <name>Hardanger Maritime Museum</name>
        <description></description>
        <Point>
          <coordinates>6.14735700,60.36646200,0</coordinates>
        </Point>
      </Placemark>
      <Placemark>
        <name>Ænesdalen</name>
        <description>Google Places types: park, point_of_interest, establishment</description>
        <Point>
          <coordinates>6.11301700,60.07290400,0</coordinates>
        </Point>
      </Placemark>
      <Placemark>
        <name>Ingebrigt Vik museum</name>
        <description></description>
        <Point>
          <coordinates>6.20120000,60.38803700,0</coordinates>
        </Point>
      </Placemark>

    </Folder>
  </Document>
</kml>
