<?xml version="1.0" encoding="UTF-8"?>
<kml xmlns="http://www.opengis.net/kml/2.2">
  <Document>
    <name>Trollhättan, Sweden</name>
    <description></description>
    <Folder>
      <Placemark>
        <name>Saab Car Museum</name>
        <description></description>
        <Point>
          <coordinates>12.27619200,58.27167700,0</coordinates>
        </Point>
      </Placemark>
      <Placemark>
        <name>Marlenes Zookällare Trollhättan</name>
        <description></description>
        <Point>
          <coordinates>12.30129800,58.28325100,0</coordinates>
        </Point>
      </Placemark>
      <Placemark>
        <name>Iron House Fitness</name>
        <description></description>
        <Point>
          <coordinates>12.29037500,58.28594900,0</coordinates>
        </Point>
      </Placemark>
      <Placemark>
        <name>Thermal Classic Spa - Massage &amp; Skin Care</name>
        <description></description>
        <Point>
          <coordinates>12.28579800,58.28411300,0</coordinates>
        </Point>
      </Placemark>
      <Placemark>
        <name>K sjuntorps Mark &amp; Trädgård AB</name>
        <description></description>
        <Point>
          <coordinates>12.30284400,58.29493500,0</coordinates>
        </Point>
      </Placemark>
      <Placemark>
        <name>Canal Museum</name>
        <description>Google Places types: museum, point_of_interest, establishment</description>
        <Point>
          <coordinates>12.26614600,58.26779200,0</coordinates>
        </Point>
      </Placemark>
      <Placemark>
        <name>Trollhättan Rygg- &amp; Ledklinik AB</name>
        <description></description>
        <Point>
          <coordinates>12.30227300,58.28098400,0</coordinates>
        </Point>
      </Placemark>
      <Placemark>
        <name>Maria Alberts Park</name>
        <description></description>
        <Point>
          <coordinates>12.29324400,58.28367400,0</coordinates>
        </Point>
      </Placemark>
      <Placemark>
        <name>More Energy Sweden - Salt room in Trollhattan</name>
        <description></description>
        <Point>
          <coordinates>12.28367700,58.28126300,0</coordinates>
        </Point>
      </Placemark>
      <Placemark>
        <name>Forngården</name>
        <description></description>
        <Point>
          <coordinates>12.27097200,58.28564000,0</coordinates>
        </Point>
      </Placemark>
      <Placemark>
        <name>Ashtanga yogacenter Trollhättan ek för</name>
        <description></description>
        <Point>
          <coordinates>12.29569200,58.28522000,0</coordinates>
        </Point>
      </Placemark>
      <Placemark>
        <name>Polhemsplatsen</name>
        <description></description>
        <Point>
          <coordinates>12.28703500,58.28333300,0</coordinates>
        </Point>
      </Placemark>
      <Placemark>
        <name>Birgittas Massage &amp; Hälsa</name>
        <description>Google Places types: beauty_salon, spa, store, health, food, point_of_interest, establishment</description>
        <Point>
          <coordinates>12.28087100,58.30183600,0</coordinates>
        </Point>
      </Placemark>
      <Placemark>
        <name>Gamle dal</name>
        <description></description>
        <Point>
          <coordinates>12.25828300,58.26765600,0</coordinates>
        </Point>
      </Placemark>
      <Placemark>
        <name>Insikten</name>
        <description>Google Places types: museum, point_of_interest, establishment</description>
        <Point>
          <coordinates>12.27428900,58.27670000,0</coordinates>
        </Point>
      </Placemark>

    </Folder>
  </Document>
</kml>
